…
else if(is.character(x) == TRUE){
  x = x %>%
    replace_na("virginica")
 }

return(x)

}

iris_with_missing = map_df(iris_with_missing,insert_new) 

iris_with_missing
```

    ## # A tibble: 150 x 5
    ##    Sepal.Length Sepal.Width Petal.Length Petal.Width Species
    ##           <dbl>       <dbl>        <dbl>       <dbl> <chr>  
    ##  1         5.1          3.5         1.4         0.2  setosa 
    ##  2         4.9          3           1.4         0.2  setosa 
    ##  3         4.7          3.2         1.3         0.2  setosa 
    ##  4         4.6          3.1         1.5         1.19 setosa 
    ##  5         5            3.6         1.4         0.2  setosa 
    ##  6         5.4          3.9         1.7         0.4  setosa 
    ##  7         5.82         3.4         1.4         0.3  setosa 
    ##  8         5            3.4         1.5         0.2  setosa 
    ##  9         4.4          2.9         1.4         0.2  setosa 
    ## 10         4.9          3.1         3.77        0.1  setosa 
    ## # … with 140 more rows
…
  - Generate 10000 datasets from the model

<!-- end list -->

``` r
set.seed(1)

sim_results = rerun (10000, sim_regression(beta1 = 0)) %>% 
  bind_rows()

sim_results
```

    ## # A tibble: 10,000 x 2
    ##    beta1_hat p_value
    ##        <dbl>   <dbl>
    ##  1   0.296     0.798
    ##  2   0.00648   0.996
    ##  3  -2.16      0.155
    ##  4  -0.454     0.718
    ##  5  -0.514     0.730
    ##  6   1.71      0.243
    ##  7  -1.18      0.322
    ##  8   1.09      0.366
    ##  9   0.806     0.377
    ## 10   2.35      0.131
    ## # … with 9,990 more rows
…
<!-- end list -->

``` r
  new_sim_results = 
  tibble(new_beta1 = c(1,2,3,4,5,6)) %>% 
  mutate(
    output_lists = map(.x = new_beta1, 
                       ~rerun(10000, sim_regression(beta1 = .x))),
    estimate_dfs = map(output_lists, bind_rows)) %>% 
  select(-output_lists) %>% 
  unnest(estimate_dfs)
new_sim_results
```

    ## # A tibble: 60,000 x 3
    ##    new_beta1 beta1_hat p_value
    ##        <dbl>     <dbl>   <dbl>
    ##  1         1    3.03    0.0247
    ##  2         1    1.39    0.295 
    ##  3         1    1.93    0.103 
    ##  4         1    0.0151  0.990 
    ##  5         1    0.111   0.944 
    ##  6         1   -1.24    0.366 
    ##  7         1    1.02    0.301 
    ##  8         1    1.82    0.223 
    ##  9         1    2.35    0.0765
    ## 10         1    2.46    0.0966
    ## # … with 59,990 more rows
…
